^C:\USERS\YUURGA\DOCUMENTS\VISUAL STUDIO 2010\PROJECTS\NOTEPADTREEVIEWER\NOTEPADTREEVIEWER\FORMS\FRMMYDLG.RESX|C:\USERS\YUURGA\DOCUMENTS\VISUAL STUDIO 2010\PROJECTS\NOTEPADTREEVIEWER\NOTEPADTREEVIEWER\PROPERTIES\RESOURCES.RESX
C:\USERS\YUURGA\DOCUMENTS\VISUAL STUDIO 2010\PROJECTS\NOTEPADTREEVIEWER\NOTEPADTREEVIEWER\OBJ\DEBUG\NOTEPADTREEVIEWER.FRMMYDLG.RESOURCES
C:\USERS\YUURGA\DOCUMENTS\VISUAL STUDIO 2010\PROJECTS\NOTEPADTREEVIEWER\NOTEPADTREEVIEWER\OBJ\DEBUG\NOTEPADTREEVIEWER.PROPERTIES.RESOURCES.RESOURCES
^C:\USERS\YUURGA\DOCUMENTS\VISUAL STUDIO 2010\PROJECTS\NOTEPADTREEVIEWER\NOTEPADTREEVIEWER\FORMS\FRMMYDLG.RESX
C:\USERS\YUURGA\DOCUMENTS\VISUAL STUDIO 2010\PROJECTS\NOTEPADTREEVIEWER\NOTEPADTREEVIEWER\OBJ\DEBUG\NOTEPADTREEVIEWER.FRMMYDLG.RESOURCES
